target/snitch_cluster/vcd/ita.vcd
$date
	Tue Jun  4 17:54:19 2024
$end
$version
	QuestaSim Version 2022.3_1
$end
$timescale
	1ps
$end

$scope module tb_bin $end

$scope module i_dut $end

$scope module i_snitch_cluster $end

$scope module i_cluster $end

$scope module i_snitch_hwpe_subsystem $end
$var reg 1 ! hwpe_busy_o $end
$upscope $end

$scope begin gen_core_8 $end

$scope module i_snitch_cc $end

$scope module i_snitch $end
$var reg 32 " pc_q [31:0] $end
$upscope $end
$upscope $end
$upscope $end
$upscope $end
$upscope $end
$upscope $end
$upscope $end
$enddefinitions $end
#0
$dumpvars
b1000000000000 "
0!
$end
#92000
b1000000000100 "
#136000
b1000000001000 "
#182000
b1000000001100 "
#226000
b1000000010000 "
#272000
b1000000010100 "
#348000
b10000000000000000000000000000000 "
#358000
b10000000000000000000000000000100 "
#360000
b10000000000000000000000000001000 "
#362000
b10000000000000000000000000001100 "
#364000
b10000000000000000000000000010000 "
#366000
b10000000000000000000000000010100 "
#368000
b10000000000000000000000000011000 "
#370000
b10000000000000000000000000011100 "
#372000
b10000000000000000000000000100000 "
#374000
b10000000000000000000000000100100 "
#376000
b10000000000000000000000000101000 "
#378000
b10000000000000000000000000101100 "
#380000
b10000000000000000000000000110000 "
#382000
b10000000000000000000000000110100 "
#384000
b10000000000000000000000000111000 "
#386000
b10000000000000000000000000111100 "
#388000
b10000000000000000000000001000000 "
#390000
b10000000000000000000000001000100 "
#392000
b10000000000000000000000001001000 "
#394000
b10000000000000000000000001001100 "
#396000
b10000000000000000000000001010000 "
#398000
b10000000000000000000000001010100 "
#400000
b10000000000000000000000001011000 "
#402000
b10000000000000000000000001011100 "
#404000
b10000000000000000000000001100000 "
#406000
b10000000000000000000000001100100 "
#408000
b10000000000000000000000001101000 "
#410000
b10000000000000000000000001101100 "
#412000
b10000000000000000000000001110000 "
#414000
b10000000000000000000000001110100 "
#416000
b10000000000000000000000001111000 "
#418000
b10000000000000000000000001111100 "
#420000
b10000000000000000000000010000000 "
#422000
b10000000000000000000000010000100 "
#424000
b10000000000000000000000010001000 "
#426000
b10000000000000000000000010001100 "
#428000
b10000000000000000000000010010000 "
#430000
b10000000000000000000000010010100 "
#458000
b10000000000000000000000010011000 "
#514000
b10000000000000000000000010011100 "
#516000
b10000000000000000000000010100000 "
#518000
b10000000000000000000000010100100 "
#520000
b10000000000000000000000010101000 "
#522000
b10000000000000000000000010101100 "
#524000
b10000000000000000000000010110000 "
#526000
b10000000000000000000000010110100 "
#528000
b10000000000000000000000010111000 "
#530000
b10000000000000000000000010111100 "
#532000
b10000000000000000000000011000000 "
#534000
b10000000000000000000000011000100 "
#536000
b10000000000000000000000011001000 "
#538000
b10000000000000000000000011001100 "
#540000
b10000000000000000000000011010000 "
#542000
b10000000000000000000000011010100 "
#544000
b10000000000000000000000011011000 "
#546000
b10000000000000000000000011011100 "
#548000
b10000000000000000000000011100000 "
#550000
b10000000000000000000000011100100 "
#552000
b10000000000000000000000011101000 "
#554000
b10000000000000000000000011101100 "
#556000
b10000000000000000000000011110000 "
#558000
b10000000000000000000000011110100 "
#560000
b10000000000000000000000011111000 "
#562000
b10000000000000000000000011111100 "
#564000
b10000000000000000000000100000000 "
#574000
b10000000000000000000000100000100 "
#576000
b10000000000000000000000100001000 "
#578000
b10000000000000000000000100001100 "
#580000
b10000000000000000000000100010000 "
#582000
b10000000000000000000000100010100 "
#584000
b10000000000000000000000100011000 "
#586000
b10000000000000000000000100011100 "
#588000
b10000000000000000000000100100000 "
#598000
b10000000000000000000000100100100 "
#600000
b10000000000000000000000100101000 "
#602000
b10000000000000000000000100101100 "
#604000
b10000000000000000000000100110000 "
#606000
b10000000000000000000000100110100 "
#608000
b10000000000000000000000100111000 "
#610000
b10000000000000000000000100111100 "
#612000
b10000000000000000101010000011100 "
#644000
b10000000000000000101010000100000 "
#668000
b10000000000000000101010000100100 "
#670000
b10000000000000000101010000101000 "
#672000
b10000000000000000101010000101100 "
#674000
b10000000000000000101010000110000 "
#676000
b10000000000000000101010000110100 "
#678000
b10000000000000000101010000111000 "
#680000
b10000000000000000101010000111100 "
#682000
b10000000000000000101010001000000 "
#692000
b10000000000000000101010001000100 "
#700000
b10000000000000000101010001001000 "
#702000
b10000000000000000101010001001100 "
#704000
b10000000000000000101010001010000 "
#706000
b10000000000000000101010001010100 "
#708000
b10000000000000000101010001011000 "
#710000
b10000000000000000101010001011100 "
#712000
b10000000000000000101010001100000 "
#716000
b10000000000000000101010001100100 "
#718000
b10000000000000000101010001101000 "
#720000
b10000000000000000101010001101100 "
#722000
b10000000000000000101010001110000 "
#724000
b10000000000000000101010001110100 "
#726000
b10000000000000000101010001111000 "
#728000
b10000000000000000101010001111100 "
#730000
b10000000000000000101010010010100 "
#756000
b10000000000000000101010010011000 "
#764000
b10000000000000000101010010011100 "
#766000
b10000000000000000101010010111000 "
#780000
b10000000000000000101010010111100 "
#788000
b10000000000000000101010011000000 "
#804000
b10000000000000000101010011000100 "
#806000
b10000000000000000101010011001000 "
#808000
b10000000000000000101010011100100 "
#828000
b10000000000000000101010011101000 "
#836000
b10000000000000000101010011101100 "
#838000
b10000000000000000101010100001100 "
#852000
b10000000000000000101010100010000 "
#860000
b10000000000000000101010100010100 "
#862000
b10000000000000000101010100011000 "
#864000
b10000000000000000101010100011100 "
#866000
b10000000000000000101010100111000 "
#876000
b10000000000000000101010100111100 "
#884000
b10000000000000000101010101000000 "
#900000
b10000000000000000101010101100000 "
#924000
b10000000000000000101010101100100 "
#932000
b10000000000000000101010101101000 "
#934000
b10000000000000000101010101101100 "
#936000
b10000000000000000101010101110000 "
#938000
b10000000000000000101010101110100 "
#940000
b10000000000000000101010101111000 "
#948000
b10000000000000000101010101111100 "
#956000
b10000000000000000101010110000000 "
#958000
b10000000000000000101010110000100 "
#966000
b10000000000000000101010110001000 "
#968000
b10000000000000000101010110101100 "
#982000
b10000000000000000101010110110000 "
#990000
b10000000000000000101010110110100 "
#992000
b10000000000000000101010110111000 "
#994000
b10000000000000000101010110111100 "
#996000
b10000000000000000101010111000000 "
#1006000
b10000000000000000101010111000100 "
#1008000
b10000000000000000101010111001000 "
#1010000
b10000000000000000101010111001100 "
#1012000
b10000000000000000101010111010000 "
#1014000
b10000000000000000101100001110100 "
#1052000
b10000000000000000101100001111000 "
#1054000
b10000000000000000101100001111100 "
#1056000
b10000000000000000101100010000000 "
#1076000
b10000000000000000101100010000100 "
#1078000
b10000000000000000101100010001000 "
#1080000
b10000000000000000101100010001100 "
#1088000
b10000000000000000101100010010000 "
#1090000
b10000000000000000101100010010100 "
#1096000
b10000000000000000101100010011000 "
#1098000
b10000000000000000101100010011100 "
#1100000
b10000000000000000101100010100000 "
#1116000
b10000000000000000101100010100100 "
#1118000
b10000000000000000101100010101000 "
#1120000
b10000000000000000101100010101100 "
#1122000
b10000000000000000101100010110000 "
#1130000
b10000000000000000101100010110100 "
#1132000
b10000000000000000101100010111000 "
#1138000
b10000000000000000101100010111100 "
#1140000
b10000000000000000101100011000000 "
#1158000
b10000000000000000101100011000100 "
#1160000
b10000000000000000101100011001000 "
#1162000
b10000000000000000101100011001100 "
#1164000
b10000000000000000101100011010000 "
#1166000
b10000000000000000101100011010100 "
#1174000
b10000000000000000101100011011000 "
#1176000
b10000000000000000101100011011100 "
#1182000
b10000000000000000101100011100000 "
#1202000
b10000000000000000101100011100100 "
#1204000
b10000000000000000101100011101000 "
#1206000
b10000000000000000101100011101100 "
#1208000
b10000000000000000101100011110000 "
#1210000
b10000000000000000101100011110100 "
#1212000
b10000000000000000101100011111000 "
#1214000
b10000000000000000101100011111100 "
#1222000
b10000000000000000101100100000000 "
#1226000
b10000000000000000101100100000100 "
#1230000
b10000000000000000101100100001000 "
#1232000
b10000000000000000101100100001100 "
#1234000
b10000000000000000101100100010000 "
#1236000
b10000000000000000101100100010100 "
#1238000
b10000000000000000101100100011000 "
#1240000
b10000000000000000101100100011100 "
#1242000
b10000000000000000101100100100000 "
#1252000
b10000000000000000101100100100100 "
#1254000
b10000000000000000101100100101000 "
#1260000
b10000000000000000101100100101100 "
#1262000
b10000000000000000101100100110000 "
#1264000
b10000000000000000101100100110100 "
#1266000
b10000000000000000101100100111000 "
#1268000
b10000000000000000101100100111100 "
#1270000
b10000000000000000101100101000000 "
#1280000
b10000000000000000101100101000100 "
#1282000
b10000000000000000101100101001000 "
#1290000
b10000000000000000101100101001100 "
#1292000
b10000000000000000101100101010000 "
#1298000
b10000000000000000101100101010100 "
#1300000
b10000000000000000101100101011000 "
#1302000
b10000000000000000101100101011100 "
#1304000
b10000000000000000101100101100000 "
#1328000
b10000000000000000101100101100100 "
#1330000
b10000000000000000101100101101000 "
#1332000
b10000000000000000101100101101100 "
#1340000
b10000000000000000101100101110000 "
#1342000
b10000000000000000101100101110100 "
#1348000
b10000000000000000101100101111000 "
#1350000
b10000000000000000101100101111100 "
#1352000
b10000000000000000101100110000000 "
#1368000
b10000000000000000101100110000100 "
#1370000
b10000000000000000101100110001000 "
#1372000
b10000000000000000101100110001100 "
#1374000
b10000000000000000101100110010000 "
#1376000
b10000000000000000101100110010100 "
#1384000
b10000000000000000101100110011000 "
#1386000
b10000000000000000101011000010100 "
#1388000
b10000000000000000101011000011000 "
#1390000
b10000000000000000101011000011100 "
#1394000
b10000000000000000101011000100000 "
#1396000
b10000000000000000101011000100100 "
#1398000
b10000000000000000101011000101000 "
#1400000
b10000000000000000101011000101100 "
#1402000
b10000000000000000101011000110000 "
#1404000
b10000000000000000101011000110100 "
#1406000
b10000000000000000101011000111000 "
#1408000
b10000000000000000101011000111100 "
#1412000
b10000000000000000101011001000000 "
#1414000
b10000000000000000101011001000100 "
#1416000
b10000000000000000101011001001000 "
#1418000
b10000000000000000101011001001100 "
#1420000
b10000000000000000101011001010000 "
#1422000
b10000000000000000101011001010100 "
#1432000
b10000000000000000101011001011000 "
#1434000
b10000000000000000101011001011100 "
#1436000
b10000000000000000101011001100000 "
#1438000
b10000000000000000101011001100100 "
#1440000
b10000000000000000101011001101000 "
#1442000
b10000000000000000101011001101100 "
#1444000
b10000000000000000101011001110000 "
#1446000
b10000000000000000101011001110100 "
#1448000
b10000000000000000101011001111000 "
#1450000
b10000000000000000101011001111100 "
#1452000
b10000000000000000101011010000000 "
#1462000
b10000000000000000101011010000100 "
#1464000
b10000000000000000101011010001000 "
#1466000
b10000000000000000101011010001100 "
#1468000
b10000000000000000101011010010000 "
#1470000
b10000000000000000101011010010100 "
#1472000
b10000000000000000101011010011000 "
#1474000
b10000000000000000101011010011100 "
#1476000
b10000000000000000101011010100000 "
#1486000
b10000000000000000101011010100100 "
#1488000
b10000000000000000101011010101000 "
#1490000
b10000000000000000101011010101100 "
#1492000
b10000000000000000101011010110000 "
#1494000
b10000000000000000101011010110100 "
#1496000
b10000000000000000101011010111000 "
#1498000
b10000000000000000101011010111100 "
#1500000
b10000000000000000101011011000000 "
#1510000
b10000000000000000101011011000100 "
#1512000
b10000000000000000101011011001000 "
#1514000
b10000000000000000101011011001100 "
#1516000
b10000000000000000101011011010000 "
#1518000
b10000000000000000101011011010100 "
#1520000
b10000000000000000101011011011000 "
#1522000
b10000000000000000101011011011100 "
#1524000
b10000000000000000101011011100000 "
#1534000
b10000000000000000101011011100100 "
#1536000
b10000000000000000101011011101000 "
#1538000
b10000000000000000101011011101100 "
#1540000
b10000000000000000101011011110000 "
#1542000
b10000000000000000101011100011100 "
#1558000
b10000000000000000101011100100000 "
#1582000
b10000000000000000101011100111000 "
#1584000
b10000000000000000101011100111100 "
#1586000
b10000000000000000101011101000000 "
#1606000
b10000000000000000101011101000100 "
#1608000
b10000000000000000101011101001000 "
#1610000
b10000000000000000101011101001100 "
#1612000
b10000000000000000101011101010000 "
#1614000
b10000000000000000101011101010100 "
#1616000
b10000000000000000101011101011000 "
#1618000
b10000000000000000101011101011100 "
#1620000
b10000000000000000101011101100000 "
#1630000
b10000000000000000101011101100100 "
#1632000
b10000000000000000101011101101000 "
#1640000
b10000000000000000101011101100100 "
#1642000
b10000000000000000101011101101000 "
#1650000
b10000000000000000101011101100100 "
#1652000
b10000000000000000101011101101000 "
#1660000
b10000000000000000101011101101100 "
#1662000
b10000000000000000101011101110000 "
#1664000
b10000000000000000101011101110100 "
#1666000
b10000000000000000101011101111000 "
#1668000
b10000000000000000101011101111100 "
#1674000
b10000000000000000101011110000000 "
#1686000
b10000000000000000101011110000100 "
#1688000
b10000000000000000101011110001000 "
#1690000
b10000000000000000101011110001100 "
#1692000
b10000000000000000101011110010000 "
#1694000
b10000000000000000101011110010100 "
#1696000
b10000000000000000101011110011000 "
#1698000
b10000000000000000101011110011100 "
#1700000
b10000000000000000101011110100000 "
#1710000
b10000000000000000101011110100100 "
#1712000
b10000000000000000101011110101000 "
#1714000
b10000000000000000101011110101100 "
#1716000
b10000000000000000101011110110000 "
#1718000
b10000000000000000101011110110100 "
#1722000
b10000000000000000101011110111000 "
#1724000
b10000000000000000000000111101100 "
#1748000
b10000000000000000000000111110000 "
#1750000
b10000000000000000000000111110100 "
#1752000
b10000000000000000000000111111000 "
#1754000
b10000000000000000000000111111100 "
#1760000
b10000000000000000000001000000000 "
#1772000
b10000000000000000000001000000100 "
#1774000
b10000000000000000000001000001000 "
#1776000
b10000000000000000000001000001100 "
#1778000
b10000000000000000000001000010000 "
#1780000
b10000000000000000000001000010100 "
#1782000
b10000000000000000000001000011000 "
#1784000
b10000000000000000000001000011100 "
#1786000
b10000000000000000000001000100000 "
#1796000
b10000000000000000000001000100100 "
#1798000
b10000000000000000000001000101000 "
#1800000
b10000000000000000000001000101100 "
#1802000
b10000000000000000000001000110000 "
#1804000
b10000000000000000000001000110100 "
#1816000
b10000000000000000000001000111000 "
#1818000
b10000000000000000000001000111100 "
#1820000
b10000000000000000000001001000000 "
#1822000
b10000000000000000000001001000100 "
#1824000
b10000000000000000000001001001000 "
#1826000
b10000000000000000000001001010000 "
#1828000
b10000000000000000000001001010100 "
#1830000
b10000000000000000000001001011000 "
#1832000
b10000000000000000000001001011100 "
#1834000
b10000000000000000000001001100000 "
#1866000
b10000000000000000000001001100100 "
#1868000
b10000000000000000000001001101000 "
#1870000
b10000000000000000000001001101100 "
#1872000
b10000000000000000000001001110000 "
#1874000
b10000000000000000000001001110100 "
#1876000
b10000000000000000000001001111000 "
#1878000
b10000000000000000000001001111100 "
#1880000
b10000000000000000000001010000000 "
#1890000
b10000000000000000000001010000100 "
#1892000
b10000000000000000000001010001000 "
#1894000
b10000000000000000000001010001100 "
#1896000
b10000000000000000000001010010000 "
#1898000
b10000000000000000000001010010100 "
#1900000
b10000000000000000000001010011000 "
#1902000
b10000000000000000000001010011100 "
#1904000
b10000000000000000000001010100000 "
#1914000
b10000000000000000000001010100100 "
#1916000
b10000000000000000000001010101000 "
#1920000
b10000000000000000000001010101100 "
#1922000
b10000000000000000000001010110000 "
#1924000
b10000000000000000000001010110100 "
#1926000
b10000000000000000000001010111000 "
#1942000
b10000000000000000000001010111100 "
#1944000
b10000000000000000000001011000000 "
#1946000
b10000000000000000000001011000100 "
#1948000
b10000000000000000000001011001000 "
#1950000
b10000000000000000000001011001100 "
#1952000
b10000000000000000000001011010000 "
#1954000
b10000000000000000000001011010100 "
#1956000
b10000000000000000000001011011000 "
#1958000
b10000000000000000000001011011100 "
#1960000
b10000000000000000000001011100000 "
#1986000
b10000000000000000000001011100100 "
#1988000
b10000000000000000000001011101000 "
#1990000
b10000000000000000000001011101100 "
#1992000
b10000000000000000000001011110000 "
#1994000
b10000000000000000000001011110100 "
#1996000
b10000000000000000000001011111000 "
#1998000
b10000000000000000000001011111100 "
#2000000
b10000000000000000000001100000000 "
#2022000
b10000000000000000000001100000100 "
#2024000
b10000000000000000000001100001000 "
#2026000
b10000000000000000000001100001100 "
#2028000
b10000000000000000000001100010000 "
#2030000
b10000000000000000000001100010100 "
#2032000
b10000000000000000000001100011000 "
#2034000
b10000000000000000000001100011100 "
#2038000
b10000000000000000000001100100000 "
#2046000
b10000000000000000000001100100100 "
#2048000
b10000000000000000000001100101000 "
#2050000
b10000000000000000000001100101100 "
#2052000
b10000000000000000000001100110000 "
#2054000
b10000000000000000000001100110100 "
#2056000
b10000000000000000000001100111000 "
#2058000
b10000000000000000000001100111100 "
#2060000
b10000000000000000000001101000000 "
#2070000
b10000000000000000000001101000100 "
#2072000
b10000000000000000000001101001000 "
#2074000
b10000000000000000000001101001100 "
#2076000
b10000000000000000000001101010000 "
#2078000
b10000000000000000000001101010100 "
#2080000
b10000000000000000000001101011000 "
#2082000
b10000000000000000000001101011100 "
#2084000
b10000000000000000000001101100000 "
#2094000
b10000000000000000000001101011100 "
#2096000
b10000000000000000000001101100000 "
#2104000
b10000000000000000000001101011100 "
#2106000
b10000000000000000000001101100000 "
#2114000
b10000000000000000000001101011100 "
#2116000
b10000000000000000000001101100000 "
#2124000
b10000000000000000000001101100100 "
#2126000
b10000000000000000000001101101000 "
#2128000
b10000000000000000000001101101100 "
#2130000
b10000000000000000000001101110000 "
#2132000
b10000000000000000000001101110100 "
#2134000
b10000000000000000000001101111000 "
#2156000
b10000000000000000000001101111100 "
#2158000
b10000000000000000000001110000000 "
#2160000
b10000000000000000000001110000100 "
#2168000
b10000000000000000000001110001000 "
#2170000
b10000000000000000000001110001100 "
#2172000
b10000000000000000000001110010000 "
#2180000
b10000000000000000000001110000000 "
#2182000
b10000000000000000000001110000100 "
#2190000
b10000000000000000000001110001000 "
#2192000
b10000000000000000000001110001100 "
#2194000
b10000000000000000000001110010000 "
#2202000
b10000000000000000000001110000000 "
#2204000
b10000000000000000000001110000100 "
#2212000
b10000000000000000000001110001000 "
#2214000
b10000000000000000000001110001100 "
#2216000
b10000000000000000000001110010000 "
#2224000
b10000000000000000000001110000000 "
#2226000
b10000000000000000000001110000100 "
#2234000
b10000000000000000000001110001000 "
#2236000
b10000000000000000000001110001100 "
#2238000
b10000000000000000000001110010000 "
#2246000
b10000000000000000000001110000000 "
#2248000
b10000000000000000000001110000100 "
#2256000
b10000000000000000000001110001000 "
#2258000
b10000000000000000000001110001100 "
#2260000
b10000000000000000000001110010000 "
#2268000
b10000000000000000000001110000000 "
#2270000
b10000000000000000000001110000100 "
#2278000
b10000000000000000000001110001000 "
#2280000
b10000000000000000000001110001100 "
#2282000
b10000000000000000000001110010000 "
#2290000
b10000000000000000000001110000000 "
#2292000
b10000000000000000000001110000100 "
#2300000
b10000000000000000000001110001000 "
#2302000
b10000000000000000000001110001100 "
#2304000
b10000000000000000000001110010000 "
#2312000
b10000000000000000000001110000000 "
#2314000
b10000000000000000000001110000100 "
#2322000
b10000000000000000000001110001000 "
#2324000
b10000000000000000000001110001100 "
#2326000
b10000000000000000000001110010000 "
#2334000
b10000000000000000000001110000000 "
#2336000
b10000000000000000000001110000100 "
#2344000
b10000000000000000000001110001000 "
#2346000
b10000000000000000000001110001100 "
#2348000
b10000000000000000000001110010000 "
#2356000
b10000000000000000000001110000000 "
#2358000
b10000000000000000000001110000100 "
#2366000
b10000000000000000000001110001000 "
#2368000
b10000000000000000000001110001100 "
#2370000
b10000000000000000000001110010000 "
#2378000
b10000000000000000000001110010100 "
#2380000
b10000000000000000000001110011000 "
#2406000
b10000000000000000000001110010100 "
#2408000
b10000000000000000000001110011000 "
#2434000
b10000000000000000000001110011100 "
#2436000
b10000000000000000000001110100000 "
#2460000
b10000000000000000000001110100100 "
#2462000
b10000000000000000000001110101000 "
#2464000
b10000000000000000000001110101100 "
#2466000
b10000000000000000000001110110000 "
#2468000
b10000000000000000000001110110100 "
#2470000
b10000000000000000000001110111000 "
#2472000
b10000000000000000000001110111100 "
#2474000
b10000000000000000000001111000000 "
#2484000
b10000000000000000000001111000100 "
#2486000
b10000000000000000000001111001000 "
#2488000
b10000000000000000000001111001100 "
#2490000
b10000000000000000000001111010000 "
#2492000
b10000000000000000000001111010100 "
#2494000
b10000000000000000000001111011000 "
#2496000
b10000000000000000000001111011100 "
#2500000
b10000000000000000000001111100000 "
#2510000
b10000000000000000000001111100100 "
#2512000
b10000000000000000000001111101000 "
#2514000
b10000000000000000000001111101100 "
#2516000
b10000000000000000000001111110000 "
#2518000
b10000000000000000000001111110100 "
#2520000
b10000000000000000000001111111000 "
#2522000
b10000000000000000000001111111100 "
#2524000
b10000000000000000000010000000000 "
#2652000
b10000000000000000000010000000100 "
#2654000
b10000000000000000000010000001000 "
#2656000
b10000000000000000000010000001100 "
#2658000
b10000000000000000000010000010000 "
#2660000
b10000000000000000000010000010100 "
#2662000
b10000000000000000000010000011000 "
#2670000
b10000000000000000000010000011100 "
#2678000
b10000000000000000000010000100000 "
#2686000
b10000000000000000000010000100100 "
#2694000
b10000000000000000000010000101000 "
#2702000
b10000000000000000000010000101100 "
#2712000
b10000000000000000000010000110000 "
#2714000
b10000000000000000000010000110100 "
#2716000
b10000000000000000000010000111000 "
#2718000
b10000000000000000000010000111100 "
#2720000
b10000000000000000000010001000000 "
#2820000
b10000000000000000000010001000100 "
#2822000
b10000000000000000000010001001000 "
#2824000
b10000000000000000000010001001100 "
#2826000
b10000000000000000000010001010000 "
#2828000
b10000000000000000000010001010100 "
#2830000
b10000000000000000000010001011000 "
#2832000
b10000000000000000000010001011100 "
#2834000
b10000000000000000000010001100000 "
#2846000
b10000000000000000000010001100100 "
#2854000
b10000000000000000000010001101000 "
#2866000
b10000000000000000000010001101100 "
#2878000
b10000000000000000000010001110000 "
#2890000
b10000000000000000000010001110100 "
#2902000
b10000000000000000000010001111000 "
#2904000
b10000000000000000000010001111100 "
#2914000
b10000000000000000000010010000000 "
#2916000
b10000000000000000000010010000100 "
#2918000
b10000000000000000000010010001000 "
#2926000
b10000000000000000000010010001100 "
#2928000
b10000000000000000000010010010000 "
#2930000
b10000000000000000000010010010100 "
#2932000
b10000000000000000000010010011000 "
#2934000
b10000000000000000000010010011100 "
#2936000
b10000000000000000000010010100000 "
#2952000
b10000000000000000000010010100100 "
#2954000
b10000000000000000000010010101000 "
#2956000
b10000000000000000000010010101100 "
#2958000
b10000000000000000000010010110000 "
#2960000
b10000000000000000000010010110100 "
#2962000
b10000000000000000000010010111000 "
#2964000
b10000000000000000000010010111100 "
#2966000
b10000000000000000000010011000000 "
#2972000
1!
#2976000
b10000000000000000000010011000100 "
#2978000
b10000000000000000000010011001000 "
#2980000
b10000000000000000000010011001100 "
#2988000
b10000000000000000000010011010000 "
#2998000
b10000000000000000000010011010100 "
#3008000
b10000000000000000000010011011000 "
#3018000
b10000000000000000000010011011100 "
#3028000
b10000000000000000000010011100000 "
#3118000
b10000000000000000000010011100100 "
#3120000
b10000000000000000000010011101000 "
#3122000
b10000000000000000000010011101100 "
#3124000
b10000000000000000000010011110000 "
#3126000
b10000000000000000000010011110100 "
#3144000
b10000000000000000000010011111000 "
#3152000
b10000000000000000000010011111100 "
#3164000
b10000000000000000000010100000000 "
#3258000
b10000000000000000000010100000100 "
#3260000
b10000000000000000000010100001000 "
#3262000
b10000000000000000000010100001100 "
#3264000
b10000000000000000000010100010000 "
#3282000
b10000000000000000000010100010100 "
#3284000
b10000000000000000000010100011000 "
#3290000
b10000000000000000000010100011100 "
#3292000
b10000000000000000000010100100000 "
#3300000
b10000000000000000000010100100100 "
#3302000
b10000000000000000000010100101000 "
#3304000
b10000000000000000000010100101100 "
#3306000
b10000000000000000000010100110000 "
#3308000
b10000000000000000000010100110100 "
#3310000
b10000000000000000000010100111000 "
#3312000
b10000000000000000000010100111100 "
#3314000
b10000000000000000000010101000000 "
#3326000
b10000000000000000000010101000100 "
#3334000
b10000000000000000000010101001000 "
#3336000
b10000000000000000000010101001100 "
#3354000
b10000000000000000000010101001000 "
#3356000
b10000000000000000000010101001100 "
#3374000
b10000000000000000000010101001000 "
#3376000
b10000000000000000000010101001100 "
#3394000
b10000000000000000000010101001000 "
#3396000
b10000000000000000000010101001100 "
#3414000
b10000000000000000000010101001000 "
#3416000
b10000000000000000000010101001100 "
#3434000
b10000000000000000000010101001000 "
#3436000
b10000000000000000000010101001100 "
#3454000
b10000000000000000000010101001000 "
#3456000
b10000000000000000000010101001100 "
#3474000
b10000000000000000000010101001000 "
#3476000
b10000000000000000000010101001100 "
#3494000
b10000000000000000000010101001000 "
#3496000
b10000000000000000000010101001100 "
#3514000
b10000000000000000000010101001000 "
#3516000
b10000000000000000000010101001100 "
#3534000
b10000000000000000000010101001000 "
#3536000
b10000000000000000000010101001100 "
#3554000
b10000000000000000000010101001000 "
#3556000
b10000000000000000000010101001100 "
#3560000
0!
#3574000
b10000000000000000000010101010000 "
#3576000
b10000000000000000000010101010100 "
#3578000
b10000000000000000000010101011000 "
#3580000
b10000000000000000000010101011100 "
#3582000
b10000000000000000000010101100000 "
#3596000
1!
#3600000
b10000000000000000000010101100100 "
#3602000
b10000000000000000000010101101000 "
#3604000
b10000000000000000000010101101100 "
#3606000
b10000000000000000000010101110000 "
#3608000
b10000000000000000000010101110100 "
#3610000
b10000000000000000000010101111000 "
#3612000
b10000000000000000000010101111100 "
#3614000
b10000000000000000000010110000000 "
#3624000
b10000000000000000000010110000100 "
#3626000
b10000000000000000000010110001000 "
#3628000
b10000000000000000000010110001100 "
#3630000
b10000000000000000000010110010000 "
#3634000
b10000000000000000000010110010100 "
#3636000
b10000000000000000000010110011000 "
#3638000
b10000000000000000000010110011100 "
#3640000
b10000000000000000000010110100000 "
#3648000
b10000000000000000000010110100100 "
#3650000
b10000000000000000000010110101000 "
#3658000
b10000000000000000000010110101100 "
#3670000
b10000000000000000000010110110000 "
#3678000
b10000000000000000000010110110100 "
#3688000
b10000000000000000000010110111000 "
#3698000
b10000000000000000000010110111100 "
#3710000
b10000000000000000000010111000000 "
#3712000
b10000000000000000000010111000100 "
#3714000
b10000000000000000000010111001000 "
#3716000
b10000000000000000000010111001100 "
#3718000
b10000000000000000000010111010000 "
#3720000
b10000000000000000000010111010100 "
#3722000
b10000000000000000000010111011000 "
#3724000
b10000000000000000000010111011100 "
#3726000
b10000000000000000000010111100000 "
#3812000
b10000000000000000000010111100100 "
#3814000
b10000000000000000000010111101000 "
#3816000
b10000000000000000000010111101100 "
#3818000
b10000000000000000000010111110000 "
#3820000
b10000000000000000000010111110100 "
#3836000
b10000000000000000000010111111000 "
#3844000
b10000000000000000000010111111100 "
#3856000
b10000000000000000000011000000000 "
#3868000
b10000000000000000000011000000100 "
#3870000
b10000000000000000000011000001000 "
#3880000
b10000000000000000000011000001100 "
#3882000
b10000000000000000000011000010000 "
#3884000
b10000000000000000000011000010100 "
#3892000
b10000000000000000000011000011000 "
#3894000
b10000000000000000000011000011100 "
#3896000
b10000000000000000000011000100000 "
#3918000
b10000000000000000000011000100100 "
#3920000
b10000000000000000000011000101000 "
#3922000
b10000000000000000000011000101100 "
#3924000
b10000000000000000000011000110000 "
#3926000
b10000000000000000000011000110100 "
#3934000
b10000000000000000000011000111000 "
#3936000
b10000000000000000000011000111100 "
#3954000
b10000000000000000000011000111000 "
#3956000
b10000000000000000000011000111100 "
#3974000
b10000000000000000000011000111000 "
#3976000
b10000000000000000000011000111100 "
#3994000
b10000000000000000000011000111000 "
#3996000
b10000000000000000000011000111100 "
#4014000
b10000000000000000000011000111000 "
#4016000
b10000000000000000000011000111100 "
#4034000
b10000000000000000000011000111000 "
#4036000
b10000000000000000000011000111100 "
#4054000
b10000000000000000000011000111000 "
#4056000
b10000000000000000000011000111100 "
#4074000
b10000000000000000000011000111000 "
#4076000
b10000000000000000000011000111100 "
#4094000
b10000000000000000000011000111000 "
#4096000
b10000000000000000000011000111100 "
#4114000
b10000000000000000000011000111000 "
#4116000
b10000000000000000000011000111100 "
#4134000
b10000000000000000000011000111000 "
#4136000
b10000000000000000000011000111100 "
#4154000
b10000000000000000000011000111000 "
#4156000
b10000000000000000000011000111100 "
#4174000
b10000000000000000000011000111000 "
#4176000
b10000000000000000000011000111100 "
#4194000
b10000000000000000000011000111000 "
#4196000
b10000000000000000000011000111100 "
#4214000
b10000000000000000000011000111000 "
#4216000
b10000000000000000000011000111100 "
#4234000
b10000000000000000000011000111000 "
#4236000
b10000000000000000000011000111100 "
#4254000
b10000000000000000000011000111000 "
#4256000
b10000000000000000000011000111100 "
#4274000
b10000000000000000000011000111000 "
#4276000
b10000000000000000000011000111100 "
#4294000
b10000000000000000000011000111000 "
#4296000
b10000000000000000000011000111100 "
#4314000
b10000000000000000000011000111000 "
#4316000
b10000000000000000000011000111100 "
#4332000
0!
#4334000
b10000000000000000000011000111000 "
#4336000
b10000000000000000000011000111100 "
#4354000
b10000000000000000000011001000000 "
#4378000
b10000000000000000000011001000100 "
#4380000
b10000000000000000000011001001000 "
#4382000
b10000000000000000000011001001100 "
#4384000
b10000000000000000000011001010000 "
#4386000
b10000000000000000000011001010100 "
#4388000
b10000000000000000000011001011000 "
#4390000
b10000000000000000000011001011100 "
#4392000
b10000000000000000000011001100000 "
#4394000
1!
#4402000
b10000000000000000000011001100100 "
#4404000
b10000000000000000000011001101000 "
#4406000
b10000000000000000000011001101100 "
#4408000
b10000000000000000000011001110000 "
#4410000
b10000000000000000000011001110100 "
#4412000
b10000000000000000000011001111000 "
#4414000
b10000000000000000000011001111100 "
#4418000
b10000000000000000000011010000000 "
#4426000
b10000000000000000000011010000100 "
#4428000
b10000000000000000000011010001000 "
#4430000
b10000000000000000000011010001100 "
#4432000
b10000000000000000000011010010000 "
#4440000
b10000000000000000000011010010100 "
#4442000
b10000000000000000000011010011000 "
#4450000
b10000000000000000000011010011100 "
#4462000
b10000000000000000000011010100000 "
#4470000
b10000000000000000000011010100100 "
#4480000
b10000000000000000000011010101000 "
#4490000
b10000000000000000000011010101100 "
#4492000
b10000000000000000000011010110000 "
#4494000
b10000000000000000000011010110100 "
